…
``` r
perm.2 <- perm.1 %>% 
  filter(year >= 2000)
```

General EDA
-----------

Counts by Year

``` r
perm.2 %>% count(year) %>% arrange(desc(year))
```

    ## # A tibble: 21 x 2
    ##     year     n
    ##    <dbl> <int>
    ##  1  2020  1095
    ##  2  2019  4380
    ##  3  2018  4380
    ##  4  2017  4380
    ##  5  2016  4380
    ##  6  2015  4380
    ##  7  2014  4572
    ##  8  2013  4560
    ##  9  2012  4560
    ## 10  2011  4560
    ## # ... with 11 more rows
…
Counts by Area

``` r
perm.2 %>% count(area) 
```

    ## # A tibble: 381 x 2
    ##    area                                  n
    ##    <fct>                             <int>
    ##  1 Abilene, TX                         243
    ##  2 Akron, OH                           243
    ##  3 Albany-Schenectady-Troy, NY         243
    ##  4 Albany, GA                          243
    ##  5 Albany, OR                          243
    ##  6 Albuquerque, NM                     243
    ##  7 Alexandria, LA                      243
    ##  8 Allentown-Bethlehem-Easton, PA-NJ   243
    ##  9 Altoona, PA                         243
    ## 10 Amarillo, TX                        243
    ## # ... with 371 more rows
…
