Building Permit data - EDA
…
We can notice more consistency in volumes in the past 10 years, so lets cut the data to be from 2000 onwards.

perm.2 <- perm.1 %>% 
  filter(year >= 2000)

General EDA

Look at Counts by Year

perm.2 %>% count(year) %>% arrange(desc(year))

## # A tibble: 21 x 2
##     year     n
##    <dbl> <int>
##  1  2020  1095
##  2  2019  4380
##  3  2018  4380
##  4  2017  4380
##  5  2016  4380
##  6  2015  4380
##  7  2014  4572
##  8  2013  4560
##  9  2012  4560
## 10  2011  4560
## # ... with 11 more rows
…
Look at Counts by Area

perm.2 %>% count(area) 

## # A tibble: 381 x 2
##    area                                  n
##    <fct>                             <int>
##  1 Abilene, TX                         243
##  2 Akron, OH                           243
##  3 Albany-Schenectady-Troy, NY         243
##  4 Albany, GA                          243
##  5 Albany, OR                          243
##  6 Albuquerque, NM                     243
##  7 Alexandria, LA                      243
##  8 Allentown-Bethlehem-Easton, PA-NJ   243
##  9 Altoona, PA                         243
## 10 Amarillo, TX                        243
## # ... with 371 more rows
…
# Lets take the top 25% areas by average monthly units 
length(unique(perm.2$area)) # we have 381 cities in total

## [1] 381

top.25 <- round(length(unique(perm.2$area)) * 0.25)

(f1.by.area <- perm.2 %>% 
  group_by(area) %>% 
  summarise(average.unit.count = mean(f1units)) %>% 
  arrange(desc(average.unit.count)) %>% 
  head(top.25)
)

## # A tibble: 95 x 2
##    area                                         average.unit.count
##    <fct>                                                     <dbl>
##  1 Houston-The Woodlands-Sugar Land, TX                      2973.
##  2 Dallas-Fort Worth-Arlington, TX                           2543.
##  3 Atlanta-Sandy Springs-Roswell, GA                         2500.
##  4 Phoenix-Mesa-Scottsdale, AZ                               2112.
##  5 Washington-Arlington-Alexandria, DC-VA-MD-WV              1425.
##  6 Riverside-San Bernardino-Ontario, CA                      1374.
##  7 Chicago-Naperville-Elgin, IL-IN-WI                        1369.
##  8 Charlotte-Concord-Gastonia, NC-SC                         1194.
##  9 New York-Newark-Jersey City, NY-NJ-PA                     1181.
## 10 Orlando-Kissimmee-Sanford, FL                             1160.
## # ... with 85 more rows
…
